^C:\USERS\ВАЛЕНТИН\DOCUMENTS\VISUAL STUDIO 2013\PROJECTS\FUNCTION_PEREGRUZKA\FUNCTION_PEREGRUZKA\STDAFX.CPP
C:\PROGRAM FILES (X86)\MICROSOFT VISUAL STUDIO 12.0\VC\BIN\1033\CLUI.DLL
C:\WINDOWS\GLOBALIZATION\SORTING\SORTDEFAULT.NLS
C:\WINDOWS\SYSTEM32\TZRES.DLL
C:\USERS\валентин\DOCUMENTS\VISUAL STUDIO 2013\PROJECTS\FUNCTION_PEREGRUZKA\FUNCTION_PEREGRUZKA\STDAFX.H
C:\USERS\валентин\DOCUMENTS\VISUAL STUDIO 2013\PROJECTS\FUNCTION_PEREGRUZKA\FUNCTION_PEREGRUZKA\TARGETVER.H
C:\PROGRAM FILES (X86)\WINDOWS KITS\8.1\INCLUDE\SHARED\SDKDDKVER.H
^C:\USERS\ВАЛЕНТИН\DOCUMENTS\VISUAL STUDIO 2013\PROJECTS\FUNCTION_PEREGRUZKA\FUNCTION_PEREGRUZKA\FUNCTION.CPP
C:\PROGRAM FILES (X86)\MICROSOFT VISUAL STUDIO 12.0\VC\BIN\1033\CLUI.DLL
C:\WINDOWS\GLOBALIZATION\SORTING\SORTDEFAULT.NLS
C:\WINDOWS\SYSTEM32\TZRES.DLL
C:\USERS\Валентин\DOCUMENTS\VISUAL STUDIO 2013\PROJECTS\FUNCTION_PEREGRUZKA\FUNCTION_PEREGRUZKA\DEBUG\FUNCTION_PEREGRUZKA.PCH
C:\USERS\валентин\DOCUMENTS\VISUAL STUDIO 2013\PROJECTS\FUNCTION_PEREGRUZKA\FUNCTION_PEREGRUZKA\FUNCTION.H
